^C:\COURS2_SEM1\HW_18_LIORHARITONOV\SADNA\WORK\PROJECT1\PROJECT1\DEBUG\HELPER.OBJ|C:\COURS2_SEM1\HW_18_LIORHARITONOV\SADNA\WORK\PROJECT1\PROJECT1\DEBUG\SOURCE.OBJ
C:\COURS2_SEM1\HW_18_LIORHARITONOV\SADNA\WORK\PROJECT1\DEBUG\PROJECT1.ILK
C:\COURS2_SEM1\HW_18_LIORHARITONOV\SADNA\WORK\PROJECT1\DEBUG\PROJECT1.EXE
C:\COURS2_SEM1\HW_18_LIORHARITONOV\SADNA\WORK\PROJECT1\DEBUG\PROJECT1.PDB
